\relax 
\babel@aux{italian}{}
\babel@aux{italian}{}
\newlabel{eq:newton}{{1}{1}}
\@writefile{toc}{\contentsline {paragraph}{Esistenza della reazione vincolare}{1}\protected@file@percent }
\newlabel{eq:newtonbis}{{2}{1}}
\@writefile{toc}{\contentsline {paragraph}{Il vincolo perfetto}{1}\protected@file@percent }
\@writefile{toc}{\contentsline {paragraph}{Il metodo lagrangiano}{2}\protected@file@percent }
\newlabel{eq:lagrange1}{{3}{2}}
\@writefile{toc}{\contentsline {paragraph}{Il numero di equazioni}{2}\protected@file@percent }
\@writefile{toc}{\contentsline {paragraph}{Il binomio Lagrangiano}{3}\protected@file@percent }
\newlabel{eq:temp1}{{4}{3}}
\@writefile{toc}{\contentsline {subparagraph}{L'espressione della velocit\`a}{3}\protected@file@percent }
\newlabel{eq:velocita}{{5}{3}}
\@writefile{toc}{\contentsline {subparagraph}{Lemma 1}{3}\protected@file@percent }
\@writefile{toc}{\contentsline {subparagraph}{Il binomio Lagrangiano}{4}\protected@file@percent }
\newlabel{eq:temp2}{{6}{4}}
\newlabel{eq:binomio-lagrangiano}{{7}{4}}
\@writefile{toc}{\contentsline {subparagraph}{Le equazioni di Lagrange}{4}\protected@file@percent }
\newlabel{eq:lagrange1-1}{{8}{4}}
\newlabel{eq:lagrange1-1-1}{{9}{5}}
\newlabel{eq:definizione-lagrangiana}{{10}{5}}
